{
  "spider": "./jar/moyu.jar;md5;90110bc739f606efe7bdd2355ff1a6af",
  "warningText": "疯子提醒您:本接口长期更新 请放心使用",
  "sites": [
    {
      "key": "豆豆",
      "name": "🐼疯子┃豆瓣推荐",
      "type": 3,
      "api": "csp_DouDou",
      "searchable": 0,
      "quickSearch": 0,
      "filterable": 0
    },
    {
      "key": "直播转点播",
      "name": "🐼疯子┃IPV6直播",
      "type": 3,
      "api": "./txt/fengzilive.js",
      "searchable": 0,
      "quickSearch": 1,
      "filterable": 0,
      "ext": "./txt/links.txt"
    },
    {
      "key": "登录",
      "name": "🐼疯子┃云盘登录",
      "type": 3,
      "api": "csp_AliYunPan",
      "jar": "./jar/香雅晴.jar",
      "searchable": 0,
      "quickSearch": 0,
      "filterable": 0,
      "ext": "http://127.0.0.1:9978/file/TVBox/token.txt"
    },
    {
      "key": "弹幕配置",
      "name": "🐼疯子┃高级设置",
      "type": 3,
      "api": "csp_Config",
      "jar": "./jar/danmu.jar",
      "searchable": 0,
      "changeable": 0,
      "indexs": 0,
      "style": {
        "type": "rect",
        "ratio": 1.43
      }
    },
    {
      "key": "doudouxie",
      "name": "🐋玩偶哥哥┃4K弹幕",
      "type": 3,
      "api": "csp_Wogg",
      "jar": "./jar/danmu.jar",
      "searchable": 1,
      "filterable": 1,
      "changeable": 1,
      "ext": {
        "token": "http://127.0.0.1:9978/file/TVBox/token.txt",
        "wogg": true,
        "danmu": true
      },
      "timeout": 30
    },
    {
      "key": "玩偶",
      "name": "👽玩偶哥哥┃4K弹幕",
      "type": 3,
      "api": "csp_WoGG",
      "searchable": 1,
      "quickSearch": 1,
      "changeable": 0,
      "ext": "http://127.0.0.1:9978/file/TVBox/token.txt+4k┃auto|fhd$$$https://www.wogg.xyz/$$$弹"
    },
    {
      "key": "土豆弹幕",
      "name": "🥔玩偶土豆┃4K弹幕",
      "type": 3,
      "api": "csp_Wobg",
      "jar": "./jar/danmu.jar",
      "quickSearch": 1,
      "changeable": 1,
      "filterable": 1,
      "ext": {
        "token": "http://127.0.0.1:9978/file/TVBox/token.txt",
        "cookie": "http://127.0.0.1:9978/file/TVBox/quark.txt",
        "site": "https://tudou.lvdoui.top",
        "danmu": true
      },
      "timeout": 25
    },
    {
      "key": "玩偶表哥",
      "name": "🤣玩偶表哥┃4K弹幕",
      "type": 3,
      "api": "csp_Wobg",
      "jar": "./jar/danmu.jar",
      "quickSearch": 1,
      "changeable": 1,
      "filterable": 1,
      "ext": {
        "token": "http://127.0.0.1:9978/file/TVBox/token.txt",
        "cookie": "http://127.0.0.1:9978/file/TVBox/quark.txt",
        "site": "https://wobge.run.goorm.io/",
        "danmu": true
      },
      "timeout": 25
    },
    {
      "key": "多多弹幕",
      "name": "😁多多弹幕┃4K弹幕",
      "type": 3,
      "api": "csp_Wobg",
      "jar": "./jar/danmu.jar",
      "quickSearch": 1,
      "changeable": 1,
      "filterable": 1,
      "ext": {
        "token": "http://127.0.0.1:9978/file/TVBox/token.txt",
        "cookie": "http://127.0.0.1:9978/file/TVBox/quark.txt",
        "site": "https://tv.yydsys.top/",
        "danmu": true
      },
      "timeout": 25
    },
    {
      "key": "多多玩偶",
      "name": "😊玩偶多多┃4K纯净",
      "type": 3,
      "api": "csp_XYQHikerAL",
      "jar": "./jar/香雅晴.jar",
      "searchable": 1,
      "quickSearch": 1,
      "filterable": 1,
      "ext": "./json/玩你老哥.json"
    },
    {
      "key": "天天开心",
      "name": "😆天天开心┃4K纯净",
      "type": 3,
      "api": "csp_XYQHikerAL",
      "jar": "./jar/香雅晴.jar",
      "searchable": 1,
      "quickSearch": 1,
      "filterable": 1,
      "ext": "./json/天天开心.json"
    },
    {
      "key": "csp_阿里苏苏",
      "name": "🦊阿里苏苏┃4K纯净",
      "type": 3,
      "api": "csp_XYQHikerAL",
      "jar": "./jar/香雅晴.jar",
      "searchable": 1,
      "quickSearch": 1,
      "filterable": 1,
      "ext": "./json/susu.json"
    },
    {
      "key": "团长弹幕",
      "name": "🫵夸克团长┃4K弹幕",
      "type": 3,
      "api": "csp_Tzfile",
      "jar": "./jar/danmu.jar",
      "searchable": 1,
      "filterable": 1,
      "changeable": 1,
      "ext": {
        "token": "http://127.0.0.1:9978/file/TVBox/token.txt",
        "cookie": "http://127.0.0.1:9978/file/TVBox/quark.txt",
        "danmu": true
      },
      "timeout": 25
    },
    {
      "key": "womog",
      "name": "💞锦书缘起┃4K纯净",
      "type": 3,
      "api": "csp_XYQHikerAL",
      "jar": "./jar/香雅晴.jar",
      "searchable": 1,
      "quickSearch": 1,
      "filterable": 1,
      "ext": "./wom.jsonp"
    },
    {
      "key": "wodog",
      "name": "💞飞鸿影轩┃4K纯净",
      "type": 3,
      "api": "csp_XYQHikerAL",
      "jar": "./jar/香雅晴.jar",
      "searchable": 1,
      "quickSearch": 1,
      "filterable": 1,
      "ext": "./json/wod.json"
    },
    {
      "key": "woxog",
      "name": "💞雪落尘泥┃4K纯净",
      "type": 3,
      "api": "csp_XYQHikerAL",
      "jar": "./jar/香雅晴.jar",
      "searchable": 1,
      "quickSearch": 1,
      "filterable": 1,
      "ext": "./json/luoxue.json"
    },
    {
      "key": "厂长弹幕版",
      "name": "🏭️厂长┃蓝光┃弹幕",
      "type": 3,
      "api": "csp_Czzy",
      "jar": "./jar/danmu.jar",
      "searchable": 1,
      "quickSearch": 1,
      "filterable": 1,
      "ext": {
        "danmu": true
      },
      "timeout": 25
    },
    {
      "key": "厂长",
      "name": "🏭️厂长┃蓝光┃纯净",
      "type": 3,
      "api": "csp_Czsapp",
      "timeout": 15,
      "playerType": 2,
      "searchable": 1,
      "quickSearch": 1,
      "changeable": 1,
      "ext": "https://www.czzy77.com/"
    },
    {
      "key": "南瓜弹幕版",
      "name": "🎃南瓜┃蓝光┃弹幕",
      "type": 3,
      "api": "csp_Nangua",
      "jar": "./jar/danmu.jar",
      "searchable": 1,
      "quickSearch": 1,
      "filterable": 1,
      "ext": {
        "danmu": true
      },
      "timeout": 10
    },
    {
      "key": "南瓜",
      "name": "🎃南瓜┃蓝光┃纯净",
      "type": 3,
      "api": "csp_NanGua",
      "timeout": 15,
      "playerType": 2,
      "searchable": 1,
      "quickSearch": 1,
      "changeable": 1
    },
    {
      "key": "南瓜xyq",
      "name": "🎃南瓜┃蓝光┃无广",
      "type": 3,
      "api": "csp_AppYSDQ",
      "jar": "./jar/香雅晴.jar",
      "searchable": 1,
      "quickSearch": 1,
      "filterable": 0
    },
    {
      "key": "酷看弹幕版",
      "name": "😎酷看┃蓝光┃弹幕",
      "type": 3,
      "api": "csp_Kkys",
      "jar": "./jar/danmu.jar",
      "searchable": 1,
      "quickSearch": 1,
      "filterable": 1,
      "ext": {
        "danmu": true
      },
      "timeout": 20
    },
    {
      "key": "酷看",
      "name": "😎酷看┃蓝光┃纯净",
      "type": 3,
      "api": "csp_Kkys",
      "timeout": 15,
      "searchable": 1,
      "quickSearch": 1,
      "changeable": 1
    },
    {
      "key": "白票弹幕版",
      "name": "🫰白嫖┃蓝光┃弹幕",
      "type": 3,
      "api": "csp_Cs1369",
      "jar": "./jar/danmu.jar",
      "searchable": 1,
      "quickSearch": 1,
      "filterable": 1,
      "ext": {
        "danmu": true
      },
      "timeout": 25
    },
    {
      "key": "白嫖",
      "name": "🫰白嫖┃蓝光┃无广",
      "type": 3,
      "api": "csp_BaiPiao",
      "playerType": 2,
      "searchable": 1,
      "quickSearch": 1,
      "changeable": 1,
      "ext": "https://www.baipiaoys.com:9092/"
    },
    {
      "key": "白嫖影视",
      "name": "🫰白嫖┃蓝光┃纯净",
      "type": 3,
      "api": "csp_XBPQ",
      "jar": "./jar/香雅晴.jar",
      "searchable": 1,
      "quickSearch": 1,
      "filterable": 1,
      "ext": "./json/白嫖.json"
    },
    {
      "key": "苹果",
      "name": "🍎苹果┃蓝光┃纯净",
      "type": 3,
      "api": "csp_LiteApple",
      "searchable": 1,
      "quickSearch": 1,
      "changeable": 1
    },
    {
      "key": "春秋蝉",
      "name": "🍁春秋┃蓝光┃纯净",
      "type": 3,
      "api": "csp_chunqiu",
      "timeout": 15,
      "searchable": 1,
      "quickSearch": 1,
      "changeable": 1
    },
    {
      "key": "七七酷",
      "name": "🏳️‍🌈七七┃蓝光┃纯净",
      "type": 3,
      "api": "csp_Kunyu77",
      "jar": "./jar/danmu.jar",
      "searchable": 1,
      "quickSearch": 1,
      "filterable": 1
    },
    {
      "key": "七味影视",
      "name": "🌿七味┃蓝光┃纯净",
      "type": 3,
      "api": "csp_XBPQ",
      "jar": "./jar/香雅晴.jar",
      "searchable": 1,
      "quickSearch": 1,
      "filterable": 1,
      "ext": {
        "分类url": "https://www.pcmp4.com/vt/{cateId}/area/{area}/class/{class}/lang/{lang}/year/{year}/page/{catePg}.html",
        "分类": "电影$1#剧集$2#动漫$4#综艺$3"
      }
    },
    {
      "key": "荐片弹幕版",
      "name": "👍️荐片┃蓝光┃弹幕",
      "type": 3,
      "api": "csp_Jianpian",
      "jar": "./jar/danmu.jar",
      "searchable": 1,
      "quickSearch": 1,
      "filterable": 1,
      "ext": {
        "danmu": true
      },
      "timeout": 20
    },
    {
      "key": "立波",
      "name": "🫡利播┃蓝光┃在线",
      "type": 3,
      "jar": "./jar/香雅晴.jar",
      "api": "csp_XBPQ",
      "playerType": 1,
      "searchable": 1,
      "changeable": 0,
      "ext": "./json/利播.json"
    },
    {
      "key": "可可影视",
      "name": "🥺可可┃有广┃勿信",
      "type": 3,
      "api": "csp_XBPQ",
      "jar": "./jar/香雅晴.jar",
      "searchable": 1,
      "quickSearch": 1,
      "filterable": 1,
      "ext": "./json/可可.json"
    },
    {
      "key": "zxzj",
      "name": "🔗在线┃蓝光┃外剧",
      "type": 3,
      "api": "csp_Zxzj",
      "timeout": 15,
      "searchable": 1,
      "quickSearch": 1,
      "changeable": 1,
      "ext": "https://www.zxzja.com/"
    },
    {
      "key": "DiDuan",
      "name": "🔋低端┃蓝光┃外剧",
      "type": 3,
      "api": "csp_Ddrk",
      "playerType": "2",
      "searchable": 1,
      "quickSearch": 1,
      "changeable": 1
    },
    {
      "key": "Xinsj",
      "name": "👁️视觉┃蓝光┃直连",
      "type": 3,
      "api": "csp_Xinsj",
      "timeout": 15,
      "searchable": 1,
      "quickSearch": 1,
      "changeable": 1,
      "ext": "https://www.80yy3.com/"
    },
    {
      "key": "新视觉备用",
      "name": "👁️视觉┃蓝光┃纯净",
      "type": 3,
      "api": "csp_Web608",
      "jar": "./jar/香雅晴.jar",
      "searchable": 1,
      "quickSearch": 0,
      "filterable": 0,
      "ext": "https://www.6080yy4.com"
    },
    {
      "key": "毛驴",
      "name": "▶️毛驴┃蓝光┃直连",
      "type": 3,
      "api": "csp_MLYS",
      "timeout": 15,
      "searchable": 1,
      "quickSearch": 1,
      "changeable": 1,
      "ext": "https://www.maolvys.com/"
    },
    {
      "key": "Auete",
      "name": "▶️奥特┃蓝光┃直连",
      "type": 3,
      "api": "csp_Auete",
      "timeout": 15,
      "searchable": 1,
      "quickSearch": 1,
      "changeable": 1,
      "ext": "https://auete.pro/"
    },
    {
      "key": "天天弹幕版",
      "name": "⛅️天天┃蓝光┃弹幕",
      "type": 3,
      "api": "csp_TianTian",
      "jar": "./jar/danmu.jar",
      "searchable": 1,
      "quickSearch": 1,
      "filterable": 1,
      "ext": {
        "danmu": true
      },
      "timeout": 10
    },
    {
      "key": "天天",
      "name": "🏳️‍⚧️天天┃蓝光┃无广",
      "type": 3,
      "api": "csp_AppTT",
      "jar": "./jar/香雅晴.jar",
      "timeout": 15,
      "playerType": 1,
      "ext": "AO7TcBkd8Iifux0Y8Qze6tVlMg=="
    },
    {
      "key": "天天cj",
      "name": "🏳️‍⚧️天天┃蓝光┃纯净",
      "type": 3,
      "api": "csp_TTian",
      "jar": "./jar/香雅晴.jar",
      "ext": "http://op.ysdqjs.cn"
    },
    {
      "key": "一起看 ",
      "name": "👩‍👩‍👧‍👦一起┃蓝光┃纯净",
      "type": 3,
      "api": "csp_YQKan",
      "searchable": 1,
      "quickSearch": 1,
      "changeable": 1
    },
    {
      "key": "一起看xyq",
      "name": "👩‍👩‍👧‍👦一起┃蓝光┃无广",
      "type": 3,
      "api": "csp_YQKan",
      "jar": "./jar/香雅晴.jar",
      "searchable": 1,
      "quickSearch": 1,
      "filterable": 0
    },
    {
      "key": "机器人bot",
      "name": "🤖机器┃蓝光┃无广",
      "type": 3,
      "api": "csp_Ikanbot",
      "jar": "./jar/香雅晴.jar",
      "searchable": 1,
      "quickSearch": 1,
      "changeable": 1
    },
    {
      "key": "rarbt",
      "name": "🤖机器┃蓝光┃纯净",
      "type": 3,
      "changeable": 1,
      "searchable": 1,
      "quickSearch": 1,
      "filterable": 1,
      "api": "csp_XBPQ",
      "jar": "./jar/香雅晴.jar",
      "ext": "./json/机器人.json"
    },
    {
      "key": "csp_Bttoo",
      "name": "🔛比特┃蓝光┃秒播",
      "type": 3,
      "api": "csp_Bttwoo",
      "searchable": 1,
      "quickSearch": 1,
      "changeable": 1
    },
    {
      "key": "新6V",
      "name": "🧲新6V┃蓝光┃磁力",
      "type": 3,
      "api": "csp_SixV",
      "searchable": 1,
      "quickSearch": 1,
      "changeable": 0,
      "ext": "http://www.xb6v.com/"
    },
    {
      "key": "哔嘀摸鱼",
      "name": "🎆哔嘀┃蓝光┃纯净",
      "type": 3,
      "api": "csp_Bdys",
      "jar": "./jar/香雅晴.jar",
      "searchable": 1,
      "quickSearch": 1,
      "filterable": 1
    },
    {
      "key": "热播库",
      "name": "🚀热播┃蓝光┃纯净",
      "type": 3,
      "api": "csp_TTian",
      "jar": "./jar/香雅晴.jar",
      "ext": "http://v.rbotv.cn"
    },
    {
      "key": "追剧摸鱼",
      "name": "🎇追剧┃蓝光┃纯净",
      "type": 3,
      "api": "csp_TTian",
      "jar": "./jar/香雅晴.jar",
      "ext": "http://app.kzjtv.com"
    },
    {
      "key": "csp_Kuaikan",
      "name": "🫣快看┃蓝光┃纯净",
      "type": 3,
      "api": "csp_Kuaikan",
      "jar": "./jar/香雅晴.jar",
      "searchable": 1,
      "quickSearch": 1,
      "filterable": 1
    },
    {
      "key": "dan酷影视",
      "name": "😎酷影┃蓝光┃纯净",
      "type": 3,
      "api": "csp_AppYsV2",
      "jar": "./jar/香雅晴.jar",
      "searchable": 1,
      "quickSearch": 1,
      "filterable": 1,
      "ext": "https://www.tvkuys.xyz/api.php/app/"
    },
    {
      "key": "达达龟",
      "name": "🐢达龟┃蓝光┃在线",
      "type": 3,
      "api": "./txt/drpy.min.js",
      "ext": "https://mirror.ghproxy.com/raw.githubusercontent.com/PizazzGY/TVBox/main/JS/达达龟.js"
    },
    {
      "key": "乐鱼影视",
      "name": "🐟乐鱼┃蓝光┃在线",
      "type": 3,
      "api": "./txt/drpy.min.js",
      "ext": "https://mirror.ghproxy.com/raw.githubusercontent.com/PizazzGY/TVBox/main/JS/乐鱼影视.js"
    },
    {
      "key": "金鱼影视",
      "name": "🐠金鱼┃蓝光┃在线",
      "type": 3,
      "api": "csp_XBPQ",
      "jar": "./jar/香雅晴.jar",
      "searchable": 1,
      "quickSearch": 1,
      "filterable": 1,
      "ext": "./json/金鱼.json"
    },
    {
      "key": "三四八",
      "name": "🥂348┃蓝光┃在线",
      "type": 3,
      "api": "csp_XBPQ",
      "jar": "./jar/香雅晴.jar",
      "searchable": 1,
      "quickSearch": 1,
      "filterable": 1,
      "ext": "./json/三四八.json"
    },
    {
      "key": "冷曦影视",
      "name": "❄️冷曦┃蓝光┃在线",
      "type": 3,
      "api": "csp_XBPQ",
      "jar": "./jar/香雅晴.jar",
      "searchable": 1,
      "quickSearch": 1,
      "filterable": 1,
      "ext": "./json/冷曦影视.json"
    },
    {
      "key": "蛋蛋影视",
      "name": "🥚蛋蛋┃蓝光┃在线",
      "type": 3,
      "api": "csp_XBPQ",
      "jar": "./jar/香雅晴.jar",
      "searchable": 1,
      "quickSearch": 1,
      "filterable": 1,
      "ext": "./json/蛋蛋影视.json"
    },
    {
      "key": "五五影视",
      "name": "⭐️五五┃蓝光┃在线",
      "type": 3,
      "api": "csp_XBPQ",
      "jar": "./jar/香雅晴.jar",
      "searchable": 1,
      "quickSearch": 1,
      "filterable": 1,
      "ext": "./json/五五影视.json"
    },
    {
      "key": "巅峰影视",
      "name": "🔝巅峰┃蓝光┃在线",
      "type": 3,
      "api": "csp_XBPQ",
      "jar": "./jar/香雅晴.jar",
      "searchable": 1,
      "quickSearch": 1,
      "filterable": 1,
      "ext": "./json/疯狗影视.json"
    },
    {
      "key": "电影牛",
      "name": "🐂影牛┃蓝光┃在线",
      "type": 3,
      "api": "csp_XYQHiker",
      "jar": "./jar/香雅晴.jar",
      "searchable": 1,
      "quickSearch": 1,
      "filterable": 1,
      "ext": "./json/电影牛.json"
    },
    {
      "key": "子子影视",
      "name": "👶子子┃蓝光┃在线",
      "type": 3,
      "api": "csp_XYQHiker",
      "jar": "./jar/香雅晴.jar",
      "searchable": 1,
      "quickSearch": 1,
      "filterable": 1,
      "ext": "./json/子子影视.json"
    },
    {
      "key": "歪片星球",
      "name": "✨️歪片┃蓝光┃在线",
      "type": 3,
      "api": "csp_XYQHiker",
      "jar": "./jar/香雅晴.jar",
      "searchable": 1,
      "quickSearch": 1,
      "filterable": 1,
      "ext": "./json/歪片星球.json"
    },
    {
      "key": "奇趣影视",
      "name": "😆奇趣┃蓝光┃在线",
      "type": 3,
      "api": "csp_XYQHiker",
      "jar": "./jar/香雅晴.jar",
      "searchable": 1,
      "quickSearch": 1,
      "filterable": 1,
      "ext": "./json/奇趣影视.json"
    },
    {
      "key": "看了么",
      "name": "🎞️看了┃蓝光┃在线",
      "type": 3,
      "api": "./txt/drpy.min.js",
      "ext": "https://mirror.ghproxy.com/raw.githubusercontent.com/PizazzGY/TVBox/main/JS/看了么.js"
    },
    {
      "key": "网飞影视",
      "name": "🛸网飞┃蓝光┃在线",
      "type": 3,
      "api": "./txt/drpy.min.js",
      "ext": "https://mirror.ghproxy.com/raw.githubusercontent.com/PizazzGY/TVBox/main/JS/网飞TV.js"
    },
    {
      "key": "魔力高清",
      "name": "🪄魔力┃蓝光┃在线",
      "type": 3,
      "api": "./txt/drpy.min.js",
      "ext": "https://mirror.ghproxy.com/raw.githubusercontent.com/PizazzGY/TVBox/main/JS/HDmoli.js"
    },
    {
      "key": "在线之家",
      "name": "🔗在线┃蓝光┃纯净",
      "type": 3,
      "api": "./txt/drpy.min.js",
      "ext": "https://mirror.ghproxy.com/raw.githubusercontent.com/PizazzGY/TVBox/main/JS/在线之家.js"
    },
    {
      "key": "碟调影视",
      "name": "🏰碟调┃蓝光┃在线",
      "type": 3,
      "api": "./txt/drpy.min.js",
      "ext": "https://mirror.ghproxy.com/raw.githubusercontent.com/PizazzGY/TVBox/main/JS/碟调影视.js"
    },
    {
      "key": "鸭奈飞",
      "name": "🦆奈飞┃蓝光┃纯净",
      "type": 3,
      "api": "csp_AppYsV2",
      "jar": "./jar/香雅晴.jar",
      "searchable": 1,
      "quickSearch": 1,
      "filterable": 1,
      "ext": "https://yanetflix.me/api.php/app/"
    },
    {
      "key": "csp_Dm84",
      "name": "🚌动漫┃巴士┃蓝光",
      "type": 3,
      "api": "csp_Dm84",
      "searchable": 1,
      "quickSearch": 1,
      "changeable": 1
    },
    {
      "key": "樱花动漫",
      "name": "🌸樱花┃动漫┃蓝光",
      "type": 3,
      "api": "csp_XBPQ",
      "jar": "./jar/香雅晴.jar",
      "ext": "分类url:https://www.857yhdm.com/show/{cateId}--{by}------{catePg}---{year}.html,分类:日本动漫$ribendongman#国产动漫$guochandongman#动漫电影$dongmandianying#欧美动漫$omeidongman"
    },
    {
      "key": "csp_Ying",
      "name": "🌸樱花┃动漫┃蓝光",
      "type": 3,
      "api": "csp_Ying",
      "jar": "./jar/香雅晴.jar",
      "searchable": 1,
      "quickSearch": 1,
      "changeable": 1
    },
    {
      "key": "稀饭动漫",
      "name": "🍚稀饭┃动漫┃蓝光",
      "type": 3,
      "api": "csp_Xifan",
      "jar": "./jar/香雅晴.jar",
      "searchable": 1,
      "quickSearch": 1,
      "filterable": 0
    },
    {
      "key": "维奇动漫",
      "name": "🫢动漫┃维奇┃蓝光",
      "type": 3,
      "api": "csp_XBPQ",
      "jar": "./jar/香雅晴.jar",
      "searchable": 1,
      "quickSearch": 1,
      "filterable": 0,
      "ext": "https://mirror.ghproxy.com/raw.githubusercontent.com/PizazzGY/TVBox/main/XBPQ/维奇动漫.json"
    },
    {
      "key": "csp_Ysj",
      "name": "💫异界┃动漫┃蓝光",
      "type": 3,
      "api": "csp_Ysj",
      "searchable": 1,
      "quickSearch": 1,
      "changeable": 1
    },
    {
      "key": "csp_Anime1",
      "name": "📖日漫┃动漫┃蓝光",
      "type": 3,
      "api": "csp_Anime1",
      "searchable": 1,
      "quickSearch": 1,
      "changeable": 1
    },
    {
      "key": "58动漫",
      "name": "🛹658┃动漫┃蓝光",
      "type": 3,
      "api": "./txt/drpy.min.js",
      "ext": "https://mirror.ghproxy.com/raw.githubusercontent.com/PizazzGY/TVBox/main/JS/58动漫.js"
    },
    {
      "key": "去看吧",
      "name": "🫣看吧┃动漫┃蓝光",
      "type": 3,
      "api": "./txt/drpy.min.js",
      "ext": "https://mirror.ghproxy.com/raw.githubusercontent.com/PizazzGY/TVBox/main/JS/去看吧.js"
    },
    {
      "key": "曲奇动漫",
      "name": "🍪曲奇┃动漫┃蓝光",
      "type": 3,
      "api": "./txt/drpy.min.js",
      "ext": "https://mirror.ghproxy.com/raw.githubusercontent.com/PizazzGY/TVBox/main/JS/曲奇动漫.js"
    },
    {
      "key": "爱弹幕",
      "name": "🛎️光幕┃动漫┃蓝光",
      "type": 3,
      "api": "./txt/drpy.min.js",
      "ext": "https://mirror.ghproxy.com/raw.githubusercontent.com/PizazzGY/TVBox/main/JS/爱弹幕.js"
    },
    {
      "key": "喵次元",
      "name": "😹喵喵┃动漫┃蓝光",
      "type": 3,
      "api": "./txt/drpy.min.js",
      "ext": "https://mirror.ghproxy.com/raw.githubusercontent.com/PizazzGY/TVBox/main/JS/喵次元.js"
    },
    {
      "key": "短剧TV",
      "name": "🎬短剧┃VIP┃热推",
      "type": 3,
      "api": "csp_Duanju5",
      "jar": "./jar/danmu.jar",
      "searchable": 1,
      "changeable": 0,
      "style": {
        "type": "rect",
        "ratio": 1.433
      },
      "timeout": 10
    },
    {
      "key": "世界短剧",
      "name": "🌏世界┃短剧┃热推",
      "type": 3,
      "api": "csp_AppYsV2",
      "jar": "./jar/danmu.jar",
      "searchable": 1,
      "changeable": 0,
      "style": {
        "type": "rect",
        "ratio": 1.433
      },
      "timeout": 10,
      "ext": "http://106.52.241.21:83/api.php/app/"
    },
    {
      "key": "种子短剧",
      "name": "🌷种子┃短剧┃热推",
      "type": 3,
      "api": "csp_AppYsV2",
      "jar": "./jar/danmu.jar",
      "searchable": 1,
      "changeable": 0,
      "style": {
        "type": "rect",
        "ratio": 1.433
      },
      "timeout": 10,
      "ext": "http://122.228.84.103:6822/api.php/app/"
    },
    {
      "key": "短剧星",
      "name": "🥕上头┃短剧┃热推",
      "type": 3,
      "api": "csp_App",
      "jar": "./jar/香雅晴.jar",
      "searchable": 1,
      "quickSearch": 1,
      "filterable": 0,
      "ext": "https://zzdj.cc/api.php/provide/vod"
    },
    {
      "key": "短剧网",
      "name": "🍆茄子┃短剧┃热推",
      "type": 3,
      "api": "csp_Duanjuw",
      "jar": "./jar/香雅晴.jar",
      "searchable": 1,
      "quickSearch": 1,
      "changeable": 1
    },
    {
      "key": "csp_XPath_鹅直播",
      "name": "🐧企鹅┃直播┃蓝光",
      "type": 3,
      "api": "csp_XPath",
      "jar": "./jar/香雅晴.jar",
      "searchable": 0,
      "quickSearch": 0,
      "filterable": 0,
      "ext": "https://jihulab.com/yydfys/yydf/-/raw/main/yydf/lib/qie.json"
    },
    {
      "key": "虎牙直播js",
      "name": "🐯虎牙┃直播┃蓝光",
      "type": 3,
      "api": "https://agit.ai/fantaiying/fty/raw/branch/master/ext/drpy2.min.js",
      "ext": "https://agit.ai/fantaiying/dr_py/raw/branch/main/js/虎牙直播.js",
      "style": {
        "type": "list"
      },
      "searchable": 0,
      "quickSearch": 0,
      "changeable": 0
    },
    {
      "key": "csp_XYQBiu_斗鱼",
      "name": "🐟斗鱼┃直播┃蓝光",
      "type": 3,
      "api": "https://agit.ai/fantaiying/fty/raw/branch/master/ext/drpy2.min.js",
      "ext": "https://agit.ai/fantaiying/dr_py/raw/branch/main/js/斗鱼直播.js",
      "style": {
        "type": "rect",
        "ratio": 1.755
      },
      "searchable": 0,
      "quickSearch": 0,
      "changeable": 0
    },
    {
      "key": "快手直播",
      "name": "✌️快手┃直播┃蓝光",
      "type": 3,
      "api": "csp_KsLive",
      "jar": "./jar/danmu.jar",
      "searchable": 0,
      "quickSearch": 0,
      "filterable": 1,
      "style": {
        "type": "rect",
        "ratio": 1.433
      },
      "timeout": 10
    },
    {
      "key": "JustLive",
      "name": "👣聚合┃直播┃蓝光",
      "type": 3,
      "api": "csp_JustLive",
      "jar": "./jar/danmu.jar",
      "searchable": 1,
      "changeable": 0,
      "style": {
        "type": "rect",
        "ratio": 1.433
      },
      "timeout": 10
    },
    {
      "key": "Bili",
      "name": "🆙哔哩┃合集┃蓝光",
      "type": 3,
      "api": "csp_Bili",
      "style": {
        "type": "rect",
        "ratio": 1.597
      },
      "searchable": 1,
      "quickSearch": 0,
      "changeable": 0,
      "ext": "https://agit.ai/fantaiying/fty/raw/branch/master/ext/bilibili.json"
    },
    {
      "key": "Biliych",
      "name": "🆙哔哩┃歌曲┃蓝光",
      "type": 3,
      "api": "csp_Bili",
      "style": {
        "type": "rect",
        "ratio": 1.597
      },
      "searchable": 1,
      "quickSearch": 0,
      "changeable": 0,
      "ext": "https://agit.ai/fantaiying/fty/raw/branch/master/ext/biliych.json"
    },
    {
      "key": "看球",
      "name": "⚽看球┃在线┃蓝光",
      "type": 3,
      "api": "csp_Kanqiu",
      "jar": "./jar/danmu.jar",
      "searchable": 1,
      "changeable": 0,
      "style": {
        "type": "list"
      },
      "timeout": 10
    },
    {
      "key": "drpy_js_310直播",
      "name": "⚽310┃直播┃蓝光",
      "type": 3,
      "api": "https://raw.cachefly.998111.xyz/ouhaibo1980/tvbox/master/js/nxog.js",
      "searchable": 1,
      "quickSearch": 1,
      "filterable": 0,
      "ext": "https://raw.cachefly.998111.xyz/ouhaibo1980/tvbox/master/js/2.js"
    },
    {
      "key": "drpy_js_88看球",
      "name": "⚽88┃看球┃蓝光",
      "type": 3,
      "api": "https://raw.cachefly.998111.xyz/ouhaibo1980/tvbox/master/js/nxog.js",
      "searchable": 1,
      "quickSearch": 1,
      "filterable": 0,
      "ext": "https://raw.cachefly.998111.xyz/ouhaibo1980/tvbox/master/js/1.js"
    },
    {
      "key": "drpy_js_JRKAN直播",
      "name": "⚽JRKAN┃直播┃蓝光",
      "type": 3,
      "api": "https://raw.cachefly.998111.xyz/ouhaibo1980/tvbox/master/js/nxog.js",
      "searchable": 1,
      "quickSearch": 1,
      "filterable": 0,
      "ext": "https://raw.cachefly.998111.xyz/ouhaibo1980/tvbox/master/js/3.js"
    },
    {
      "key": "dr_兔小贝",
      "name": "📚儿童┃启蒙┃教育",
      "type": 3,
      "api": "https://agit.ai/fantaiying/fty/raw/branch/master/ext/drpy2.min.js",
      "ext": "https://agit.ai/fantaiying/fty/raw/branch/master/ext/%E5%85%94%E5%B0%8F%E8%B4%9D.js",
      "style": {
        "type": "rect",
        "ratio": 1.597
      },
      "searchable": 0,
      "quickSearch": 0,
      "changeable": 0
    },
    {
      "key": "少儿教育",
      "name": "📚少儿┃学识┃教育",
      "type": 3,
      "api": "csp_Bili",
      "style": {
        "type": "rect",
        "ratio": 1.597
      },
      "searchable": 0,
      "quickSearch": 0,
      "changeable": 0,
      "ext": "https://agit.ai/fantaiying/fty/raw/branch/master/ext/少儿教育.json"
    },
    {
      "key": "小学课堂",
      "name": "📚小学┃课堂┃教育",
      "type": 3,
      "api": "csp_Bili",
      "style": {
        "type": "rect",
        "ratio": 1.597
      },
      "searchable": 0,
      "quickSearch": 0,
      "changeable": 0,
      "ext": "https://agit.ai/fantaiying/fty/raw/branch/master/ext/小学课堂.json"
    },
    {
      "key": "初中课堂",
      "name": "📚初中┃课堂┃教育",
      "type": 3,
      "api": "csp_Bili",
      "style": {
        "type": "rect",
        "ratio": 1.597
      },
      "searchable": 0,
      "quickSearch": 0,
      "changeable": 0,
      "ext": "https://agit.ai/fantaiying/fty/raw/branch/master/ext/初中课堂.json"
    },
    {
      "key": "高中教育",
      "name": "📚高中┃课堂┃教育",
      "type": 3,
      "api": "csp_Bili",
      "style": {
        "type": "rect",
        "ratio": 1.597
      },
      "searchable": 0,
      "quickSearch": 0,
      "changeable": 0,
      "ext": "https://agit.ai/fantaiying/fty/raw/branch/master/ext/高中课堂.json"
    },
    {
      "key": "csp_AList",
      "name": "😋小雅┃网盘┃分享",
      "type": 3,
      "api": "csp_AList",
      "jar": "./jar/danmu.jar",
      "searchable": 1,
      "quickSearch": 0,
      "filterable": 1,
      "changeable": 0,
      "ext": "./json/xiaoya.json"
    },
    {
      "key": "Aid",
      "name": "🚑️急救┃常识┃教育",
      "type": 3,
      "api": "csp_FirstAid",
      "searchable": 0,
      "quickSearch": 0,
      "changeable": 0,
      "style": {
        "type": "rect",
        "ratio": 3.8
      }
    },
    {
      "key": "易搜",
      "name": "😹易搜┃弹幕┃搜索",
      "type": 3,
      "api": "csp_YiSo",
      "jar": "./jar/danmu.jar",
      "searchable": 1,
      "filterable": 0,
      "changeable": 0,
      "ext": {
        "token": "file://TV/ali_token.txt",
        "danmu": true
      },
      "timeout": 15
    },
    {
      "key": "YiSo",
      "name": "😹易搜┃搜索┃纯净",
      "type": 3,
      "api": "csp_YiSo",
      "searchable": 1,
      "quickSearch": 1,
      "changeable": 0,
      "ext": "http://127.0.0.1:9978/file/TVBox/token.txt+4k|auto|fhd"
    },
    {
      "key": "盘搜",
      "name": "🦊盘搜┃弹幕┃搜索",
      "type": 3,
      "api": "csp_PanSou",
      "jar": "./jar/danmu.jar",
      "searchable": 1,
      "filterable": 0,
      "changeable": 0,
      "ext": {
        "token": "file://TV/ali_token.txt",
        "danmu": true
      },
      "timeout": 15
    },
    {
      "key": "PanSou",
      "name": "🦊盘搜┃搜索┃纯净",
      "type": 3,
      "api": "csp_PanSou",
      "searchable": 1,
      "quickSearch": 1,
      "changeable": 0,
      "ext": "http://127.0.0.1:9978/file/TVBox/token.txt+4k|auto|fhd"
    },
    {
      "key": "Up云搜",
      "name": "😻Up搜┃弹幕┃搜索",
      "type": 3,
      "api": "csp_Upys",
      "jar": "./jar/danmu.jar",
      "searchable": 1,
      "filterable": 0,
      "changeable": 0,
      "ext": {
        "token": "file://TV/ali_token.txt",
        "danmu": true
      },
      "timeout": 15
    },
    {
      "key": "UpYun",
      "name": "😻Up搜┃搜索┃纯净",
      "type": 3,
      "api": "csp_UpYun",
      "searchable": 1,
      "quickSearch": 1,
      "changeable": 0,
      "ext": "http://127.0.0.1:9978/file/TVBox/token.txt+4k|auto|fhd"
    },
    {
      "key": "盘Se",
      "name": "🙀盘Se┃弹幕┃搜索",
      "type": 3,
      "api": "csp_PanSearch",
      "jar": "./jar/danmu.jar",
      "searchable": 1,
      "filterable": 0,
      "changeable": 0,
      "ext": {
        "token": "file://TV/ali_token.txt",
        "danmu": true
      },
      "timeout": 15
    },
    {
      "key": "PanSearch",
      "name": "🙀盘Se┃搜索┃纯净",
      "type": 3,
      "api": "csp_PanSearch",
      "searchable": 1,
      "quickSearch": 1,
      "changeable": 0,
      "ext": "http://127.0.0.1:9978/file/TVBox/token.txt+4k|auto|fhd"
    },
    {
      "key": "影搜弹幕",
      "name": "🕵️影搜┃弹幕┃搜索",
      "type": 3,
      "api": "csp_Yingso",
      "jar": "./jar/danmu.jar",
      "searchable": 1,
      "filterable": 0,
      "changeable": 0,
      "ext": {
        "token": "file://TV/ali_token.txt",
        "cookie": "file://TV/quark_cookie.txt",
        "danmu": true
      },
      "timeout": 15
    },
    {
      "key": "影搜",
      "name": "🕵️影搜┃搜索┃纯净",
      "type": 3,
      "api": "csp_XYQHiker",
      "jar": "./jar/香雅晴.jar",
      "searchable": 1,
      "quickSearch": 1,
      "filterable": 1,
      "ext": "./json/影搜.json"
    },
    {
      "key": "豆豆飞搜索",
      "name": "🫘豆豆┃搜索┃纯净",
      "type": 3,
      "api": "csp_XYQHikerAL",
      "jar": "./jar/香雅晴.jar",
      "searchable": 1,
      "quickSearch": 1,
      "filterable": 1,
      "ext": "./json/豆豆搜.json"
    },
    {
      "key": "找資源",
      "name": "🐺找zy┃搜索┃弹幕",
      "type": 3,
      "api": "csp_Zhaozy",
      "jar": "./jar/danmu.jar",
      "searchable": 1,
      "filterable": 0,
      "changeable": 0,
      "ext": {
        "token": "file://TV/ali_token.txt",
        "danmu": true
      },
      "timeout": 15
    },
    {
      "key": "七夜",
      "name": "😾七夜┃搜索┃弹幕",
      "type": 3,
      "api": "csp_Dovx",
      "jar": "./jar/danmu.jar",
      "searchable": 1,
      "filterable": 0,
      "changeable": 0,
      "ext": {
        "token": "file://TV/ali_token.txt",
        "danmu": true
      },
      "timeout": 15
    },
    {
      "key": "csp_QuPanSou",
      "name": "🤓趣盘┃搜索┃弹幕",
      "type": 3,
      "api": "csp_QuPanSou",
      "jar": "./jar/danmu.jar",
      "searchable": 1,
      "filterable": 1,
      "changeable": 0,
      "ext": {
        "cookie": "file://TV/quark_cookie.txt",
        "danmu": true
      },
      "timeout": 15
    },
    {
      "key": "csp_Qkpanso",
      "name": "🐚夸克┃搜索┃弹幕",
      "type": 3,
      "api": "csp_Qkpanso",
      "jar": "./jar/danmu.jar",
      "searchable": 1,
      "filterable": 1,
      "changeable": 0,
      "ext": {
        "cookie": "file://TV/quark_cookie.txt",
        "danmu": true
      },
      "timeout": 15
    },
    {
      "key": "csp_AiPanSou",
      "name": "🥰爱盘┃搜索┃弹幕",
      "type": 3,
      "api": "csp_AiPanSou",
      "jar": "./jar/danmu.jar",
      "searchable": 1,
      "filterable": 1,
      "changeable": 0,
      "ext": {
        "cookie": "file://TV/quark_cookie.txt",
        "danmu": true
      },
      "timeout": 15
    },
    {
      "key": "云盘4K",
      "name": "🤖云盘┃搜索┃弹幕",
      "type": 3,
      "api": "csp_Yunpan4k",
      "jar": "./jar/danmu.jar",
      "searchable": 1,
      "filterable": 0,
      "changeable": 0,
      "ext": {
        "token": "file://TV/ali_token.txt",
        "cookie": "file://TV/quark_cookie.txt",
        "danmu": true
      },
      "timeout": 15
    },
    {
      "key": "应用商店",
      "name": "🏪应用┃商店┃推送",
      "type": 3,
      "api": "csp_Market",
      "searchable": 0,
      "changeable": 0,
      "ext": "http://我不是.摸鱼儿.top/json/market.json",
      "jar": "./jar/danmu.jar"
    },
    {
      "key": "push_agent",
      "name": "🛴手机┃推送┃电视",
      "type": 3,
      "api": "csp_Push",
      "jar": "./jar/danmu.jar",
      "searchable": 0,
      "filterable": 0,
      "changeable": 0,
      "ext": {
        "token": "file://TV/ali_token.txt",
        "cookie": "file://TV/quark_cookie.txt",
        "danmu": true
      },
      "timeout": 15
    }
  ],
  "parses": [
    {
      "name": "聚合1",
      "type": 3,
      "url": "Demo"
    },
    {
      "name": "聚合0",
      "type": 3,
      "url": "Web"
    },
    {
      "name": "疯子解析A",
      "type": 1,
      "url": "https://api.qljson.xyz/api/?key=11781ab2890bcb53fdb4b2ad27503d7c&url=",
      "ext": {
        "flag": [
          "qq",
          "腾讯",
          "qiyi",
          "爱奇艺",
          "奇艺",
          "youku",
          "优酷",
          "sohu",
          "搜狐",
          "letv",
          "乐视",
          "mgtv",
          "芒果",
          "rx",
          "ltnb",
          "bilibili",
          "1905",
          "xigua"
        ]
      }
    },
    {
      "name": "疯子解析B",
      "type": 1,
      "url": "https://api.qljson.xyz/api/?key=11781ab2890bcb53fdb4b2ad27503d7c&url=",
      "ext": {
        "flag": [
          "qq",
          "腾讯",
          "qiyi",
          "爱奇艺",
          "奇艺",
          "youku",
          "优酷",
          "sohu",
          "搜狐",
          "letv",
          "乐视",
          "mgtv",
          "芒果",
          "rx",
          "ltnb",
          "bilibili",
          "1905",
          "xigua"
        ]
      }
    },
    {
      "name": "疯子解析C",
      "type": 1,
      "url": "https://mg.zrjx.xyz/?url=",
      "ext": {
        "flag": [
          "qq",
          "腾讯",
          "qiyi",
          "爱奇艺",
          "奇艺",
          "youku",
          "优酷",
          "sohu",
          "搜狐",
          "letv",
          "乐视",
          "mgtv",
          "芒果",
          "rx",
          "ltnb",
          "bilibili",
          "1905",
          "xigua"
        ]
      }
    },
    {
      "name": "请保持 解析聚合 为红色方能正常播放",
      "type": 0,
      "url": "https://jx.777jiexi.com/player/?url="
    },
    {
      "name": "",
      "type": 1,
      "url": "http://app.lyyyt/?url=",
      "header": {
        "User-Agent": "okhttp/4.1.0"
      }
    },
    {
      "name": "",
      "type": 1,
      "url": "http://xn--wnup5g.xn--z7x900a.love:63/Art1/analysis.php?v=",
      "ext": {
        "flag": [
          "qq",
          "腾讯",
          "企鹅",
          "IQiYi",
          "qiyi",
          "爱奇艺",
          "奇艺",
          "youku",
          "YouKu",
          "优酷",
          "sohu",
          "SoHu",
          "搜狐",
          "letv",
          "LeShi",
          "乐视",
          "imgo",
          "mgtv",
          "MangGuo",
          "芒果",
          "SLYS4k",
          "BYGA",
          "luanzi",
          "AliS",
          "dxzy",
          "bilibili",
          "QEYSS",
          "xigua",
          "西瓜视频",
          "腾讯视频",
          "奇艺视频",
          "优酷视频",
          "芒果视频",
          "乐视视频"
        ]
      }
    },
    {
      "name": "",
      "type": 0,
      "url": "https://jx.bozrc.com:4433/player/?url=",
      "ext": {
        "flag": [
          "qq",
          "腾讯",
          "qiyi",
          "爱奇艺",
          "奇艺",
          "youku",
          "优酷",
          "mgtv",
          "芒果",
          "letv",
          "乐视",
          "pptv",
          "PPTV",
          "sohu",
          "bilibili",
          "哔哩哔哩",
          "哔哩"
        ],
        "header": {
          "User-Agent": "okhttp/4.1.0"
        }
      }
    },
    {
      "name": "",
      "type": 0,
      "url": "http://www.miaoys.cc/vip/?url="
    },
    {
      "name": "",
      "type": 1,
      "url": "https://cy.jonwer.cn/home/api?type=ys&uid=13139054&key=cdouvyDGNOPTV01369&url="
    },
    {
      "name": "",
      "type": 1,
      "url": "http://47.108.39.237:55/api/jsonindex.php/?key=dp2xOsl8Nws8uFdY0E&url="
    },
    {
      "name": "",
      "type": 1,
      "url": "http://jx.fuqizhishi.com:63/API.php?appkey=feimao&url=",
      "ext": {
        "flag": [
          "qq",
          "腾讯",
          "企鹅",
          "IQiYi",
          "qiyi",
          "爱奇艺",
          "奇艺",
          "youku",
          "YouKu",
          "优酷",
          "sohu",
          "SoHu",
          "搜狐",
          "letv",
          "LeShi",
          "乐视",
          "imgo",
          "mgtv",
          "MangGuo",
          "芒果",
          "SLYS4k",
          "BYGA",
          "luanzi",
          "AliS",
          "dxzy",
          "bilibili",
          "QEYSS",
          "xigua",
          "西瓜视频",
          "腾讯视频",
          "奇艺视频",
          "优酷视频",
          "芒果视频",
          "乐视视频"
        ]
      }
    }
  ],
  "doh": [
    {
      "name": "Google",
      "url": "https://dns.google/dns-query",
      "ips": [
        "8.8.4.4",
        "8.8.8.8"
      ]
    },
    {
      "name": "Cloudflare",
      "url": "https://cloudflare-dns.com/dns-query",
      "ips": [
        "1.1.1.1",
        "1.0.0.1",
        "2606:4700:4700::1111",
        "2606:4700:4700::1001"
      ]
    },
    {
      "name": "AdGuard",
      "url": "https://dns.adguard.com/dns-query",
      "ips": [
        "94.140.14.140",
        "94.140.14.141"
      ]
    },
    {
      "name": "DNSWatch",
      "url": "https://resolver2.dns.watch/dns-query",
      "ips": [
        "84.200.69.80",
        "84.200.70.40"
      ]
    },
    {
      "name": "Quad9",
      "url": "https://dns.quad9.net/dns-quer",
      "ips": [
        "9.9.9.9",
        "149.112.112.112"
      ]
    }
  ],
  "rules": [
    {
      "name": "kk",
      "hosts": [
        "kuaikan"
      ],
      "regex": [
        "5",
        "20.123",
        "20.167",
        "#EXT-X-DISCONTINUITY\\r*\\n*((?!#EXT-X-DISCONTINUITY)[\\s\\S])*?#EXT-X-KEY:METHOD((?!#EXT-X-DISCONTINUITY)[\\s\\S])*?#EXT-X-DISCONTINUITY"
      ]
    },
    {
      "name": "yqk",
      "hosts": [
        "yqk"
      ],
      "regex": [
        "18.4",
        "15.1666",
        "#EXT-X-DISCONTINUITY\\r*\\n*((?!#EXT-X-DISCONTINUITY)[\\s\\S])*?#EXT-X-CUE-OUT((?!#EXT-X-DISCONTINUITY)[\\s\\S])*?#EXT-X-CUE-IN"
      ]
    },
    {
      "name": "sn",
      "hosts": [
        "suonizy"
      ],
      "regex": [
        "#EXTINF.*?\\s+.*?original.*?\\.ts\\s+",
        "15.1666",
        "15.2666",
        "16.3333",
        "15.266667"
      ]
    },
    {
      "name": "bf",
      "hosts": [
        "bfzy"
      ],
      "regex": [
        "#EXT-X-DISCONTINUITY\\r*\\n*#EXTINF:3,[\\s\\S]*?#EXT-X-DISCONTINUITY"
      ]
    },
    {
      "name": "xx",
      "hosts": [
        "aws.ulivetv.net"
      ],
      "regex": [
        "#EXT-X-DISCONTINUITY\\r*\\n*#EXTINF:8,[\\s\\S]*?#EXT-X-DISCONTINUITY"
      ]
    },
    {
      "name": "lz",
      "hosts": [
        "vip.lz",
        "hd.lz",
        "v.cdnlz",
        "yzzy1.play"
      ],
      "regex": [
        "18.5333",
        "19.52",
        "18.6666"
      ]
    },
    {
      "name": "ff",
      "hosts": [
        "vip.ffzy",
        "hd.ffzy",
        "ffzy"
      ],
      "regex": [
        "25.0666",
        "25.08",
        "20.52",
        "25.1",
        "25.1999"
      ]
    },
    {
      "name": "hs",
      "hosts": [
        "huoshan.com"
      ],
      "regex": [
        "item_id="
      ]
    },
    {
      "name": "dy",
      "hosts": [
        "douyin.com"
      ],
      "regex": [
        "is_play_url="
      ]
    },
    {
      "name": "nm",
      "hosts": [
        "toutiaovod.com"
      ],
      "regex": [
        "video/tos/cn"
      ]
    },
    {
      "name": "cl",
      "hosts": [
        "magnet"
      ],
      "regex": [
        "最 新",
        "直 播",
        "更 新"
      ]
    }
  ],
  "lives": [
    {
      "name": "SAO0",
      "type": 0,
      "url": "./txt/live.txt",
      "playerType": 1,
      "ua": "okhttp/3.15",
      "epg": "http://epg.112114.xyz/?ch={name}&date={date}",
      "logo": "https://epg.112114.xyz/logo/{name}.png"
    },
    {
      "name": "IPV6",
      "type": 0,
      "url": "https://live.fanmingming.com/tv/m3u/ipv6.m3u",
      "playerType": 1,
      "ua": "okhttp/3.15",
      "epg": "http://epg.112114.xyz/?ch={name}&date={date}",
      "logo": "https://epg.112114.xyz/logo/{name}.png"
    }
  ]
}